%!PS-Adobe-3.0 EPSF-3.0
%%Creator: (MATLAB, The Mathworks, Inc. Version 9.3.0.713579 \(R2017b\). Operating System: Windows 10)
%%Title: (H:/gdrive/?????/8? ???????/??????/Assignment 1/tex_files/images/m_0.1/paramError.eps)
%%CreationDate: 2018-04-15T13:22:05
%%Pages: (atend)
%%BoundingBox: 0 0 420 315
%%LanguageLevel: 3
%%EndComments
%%BeginProlog
%%BeginResource: procset (Apache XML Graphics Std ProcSet) 1.2 0
%%Version: 1.2 0
%%Copyright: (Copyright 2001-2003,2010 The Apache Software Foundation. License terms: http://www.apache.org/licenses/LICENSE-2.0)
/bd{bind def}bind def
/ld{load def}bd
/GR/grestore ld
/GS/gsave ld
/RM/rmoveto ld
/C/curveto ld
/t/show ld
/L/lineto ld
/ML/setmiterlimit ld
/CT/concat ld
/f/fill ld
/N/newpath ld
/S/stroke ld
/CC/setcmykcolor ld
/A/ashow ld
/cp/closepath ld
/RC/setrgbcolor ld
/LJ/setlinejoin ld
/GC/setgray ld
/LW/setlinewidth ld
/M/moveto ld
/re {4 2 roll M
1 index 0 rlineto
0 exch rlineto
neg 0 rlineto
cp } bd
/_ctm matrix def
/_tm matrix def
/BT { _ctm currentmatrix pop matrix _tm copy pop 0 0 moveto } bd
/ET { _ctm setmatrix } bd
/iTm { _ctm setmatrix _tm concat } bd
/Tm { _tm astore pop iTm 0 0 moveto } bd
/ux 0.0 def
/uy 0.0 def
/F {
  /Tp exch def
  /Tf exch def
  Tf findfont Tp scalefont setfont
  /cf Tf def  /cs Tp def
} bd
/ULS {currentpoint /uy exch def /ux exch def} bd
/ULE {
  /Tcx currentpoint pop def
  gsave
  newpath
  cf findfont cs scalefont dup
  /FontMatrix get 0 get /Ts exch def /FontInfo get dup
  /UnderlinePosition get Ts mul /To exch def
  /UnderlineThickness get Ts mul /Tt exch def
  ux uy To add moveto  Tcx uy To add lineto
  Tt setlinewidth stroke
  grestore
} bd
/OLE {
  /Tcx currentpoint pop def
  gsave
  newpath
  cf findfont cs scalefont dup
  /FontMatrix get 0 get /Ts exch def /FontInfo get dup
  /UnderlinePosition get Ts mul /To exch def
  /UnderlineThickness get Ts mul /Tt exch def
  ux uy To add cs add moveto Tcx uy To add cs add lineto
  Tt setlinewidth stroke
  grestore
} bd
/SOE {
  /Tcx currentpoint pop def
  gsave
  newpath
  cf findfont cs scalefont dup
  /FontMatrix get 0 get /Ts exch def /FontInfo get dup
  /UnderlinePosition get Ts mul /To exch def
  /UnderlineThickness get Ts mul /Tt exch def
  ux uy To add cs 10 mul 26 idiv add moveto Tcx uy To add cs 10 mul 26 idiv add lineto
  Tt setlinewidth stroke
  grestore
} bd
/QT {
/Y22 exch store
/X22 exch store
/Y21 exch store
/X21 exch store
currentpoint
/Y21 load 2 mul add 3 div exch
/X21 load 2 mul add 3 div exch
/X21 load 2 mul /X22 load add 3 div
/Y21 load 2 mul /Y22 load add 3 div
/X22 load /Y22 load curveto
} bd
/SSPD {
dup length /d exch dict def
{
/v exch def
/k exch def
currentpagedevice k known {
/cpdv currentpagedevice k get def
v cpdv ne {
/upd false def
/nullv v type /nulltype eq def
/nullcpdv cpdv type /nulltype eq def
nullv nullcpdv or
{
/upd true def
} {
/sametype v type cpdv type eq def
sametype {
v type /arraytype eq {
/vlen v length def
/cpdvlen cpdv length def
vlen cpdvlen eq {
0 1 vlen 1 sub {
/i exch def
/obj v i get def
/cpdobj cpdv i get def
obj cpdobj ne {
/upd true def
exit
} if
} for
} {
/upd true def
} ifelse
} {
v type /dicttype eq {
v {
/dv exch def
/dk exch def
/cpddv cpdv dk get def
dv cpddv ne {
/upd true def
exit
} if
} forall
} {
/upd true def
} ifelse
} ifelse
} if
} ifelse
upd true eq {
d k v put
} if
} if
} if
} forall
d length 0 gt {
d setpagedevice
} if
} bd
/RE { % /NewFontName [NewEncodingArray] /FontName RE -
  findfont dup length dict begin
  {
    1 index /FID ne
    {def} {pop pop} ifelse
  } forall
  /Encoding exch def
  /FontName 1 index def
  currentdict definefont pop
  end
} bind def
%%EndResource
%%BeginResource: procset (Apache XML Graphics EPS ProcSet) 1.0 0
%%Version: 1.0 0
%%Copyright: (Copyright 2002-2003 The Apache Software Foundation. License terms: http://www.apache.org/licenses/LICENSE-2.0)
/BeginEPSF { %def
/b4_Inc_state save def         % Save state for cleanup
/dict_count countdictstack def % Count objects on dict stack
/op_count count 1 sub def      % Count objects on operand stack
userdict begin                 % Push userdict on dict stack
/showpage { } def              % Redefine showpage, { } = null proc
0 setgray 0 setlinecap         % Prepare graphics state
1 setlinewidth 0 setlinejoin
10 setmiterlimit [ ] 0 setdash newpath
/languagelevel where           % If level not equal to 1 then
{pop languagelevel             % set strokeadjust and
1 ne                           % overprint to their defaults.
{false setstrokeadjust false setoverprint
} if
} if
} bd
/EndEPSF { %def
count op_count sub {pop} repeat            % Clean up stacks
countdictstack dict_count sub {end} repeat
b4_Inc_state restore
} bd
%%EndResource
%FOPBeginFontDict
%%IncludeResource: font Courier-Oblique
%%IncludeResource: font Courier-BoldOblique
%%IncludeResource: font Courier-Bold
%%IncludeResource: font ZapfDingbats
%%IncludeResource: font Symbol
%%IncludeResource: font Helvetica
%%IncludeResource: font Helvetica-Oblique
%%IncludeResource: font Helvetica-Bold
%%IncludeResource: font Helvetica-BoldOblique
%%IncludeResource: font Times-Roman
%%IncludeResource: font Times-Italic
%%IncludeResource: font Times-Bold
%%IncludeResource: font Times-BoldItalic
%%IncludeResource: font Courier
%FOPEndFontDict
%%BeginResource: encoding WinAnsiEncoding
/WinAnsiEncoding [
/.notdef /.notdef /.notdef /.notdef /.notdef
/.notdef /.notdef /.notdef /.notdef /.notdef
/.notdef /.notdef /.notdef /.notdef /.notdef
/.notdef /.notdef /.notdef /.notdef /.notdef
/.notdef /.notdef /.notdef /.notdef /.notdef
/.notdef /.notdef /.notdef /.notdef /.notdef
/.notdef /.notdef /space /exclam /quotedbl
/numbersign /dollar /percent /ampersand /quotesingle
/parenleft /parenright /asterisk /plus /comma
/hyphen /period /slash /zero /one
/two /three /four /five /six
/seven /eight /nine /colon /semicolon
/less /equal /greater /question /at
/A /B /C /D /E
/F /G /H /I /J
/K /L /M /N /O
/P /Q /R /S /T
/U /V /W /X /Y
/Z /bracketleft /backslash /bracketright /asciicircum
/underscore /quoteleft /a /b /c
/d /e /f /g /h
/i /j /k /l /m
/n /o /p /q /r
/s /t /u /v /w
/x /y /z /braceleft /bar
/braceright /asciitilde /bullet /Euro /bullet
/quotesinglbase /florin /quotedblbase /ellipsis /dagger
/daggerdbl /circumflex /perthousand /Scaron /guilsinglleft
/OE /bullet /Zcaron /bullet /bullet
/quoteleft /quoteright /quotedblleft /quotedblright /bullet
/endash /emdash /asciitilde /trademark /scaron
/guilsinglright /oe /bullet /zcaron /Ydieresis
/space /exclamdown /cent /sterling /currency
/yen /brokenbar /section /dieresis /copyright
/ordfeminine /guillemotleft /logicalnot /sfthyphen /registered
/macron /degree /plusminus /twosuperior /threesuperior
/acute /mu /paragraph /middot /cedilla
/onesuperior /ordmasculine /guillemotright /onequarter /onehalf
/threequarters /questiondown /Agrave /Aacute /Acircumflex
/Atilde /Adieresis /Aring /AE /Ccedilla
/Egrave /Eacute /Ecircumflex /Edieresis /Igrave
/Iacute /Icircumflex /Idieresis /Eth /Ntilde
/Ograve /Oacute /Ocircumflex /Otilde /Odieresis
/multiply /Oslash /Ugrave /Uacute /Ucircumflex
/Udieresis /Yacute /Thorn /germandbls /agrave
/aacute /acircumflex /atilde /adieresis /aring
/ae /ccedilla /egrave /eacute /ecircumflex
/edieresis /igrave /iacute /icircumflex /idieresis
/eth /ntilde /ograve /oacute /ocircumflex
/otilde /odieresis /divide /oslash /ugrave
/uacute /ucircumflex /udieresis /yacute /thorn
/ydieresis
] def
%%EndResource
%FOPBeginFontReencode
/Courier-Oblique findfont
dup length dict begin
  {1 index /FID ne {def} {pop pop} ifelse} forall
  /Encoding WinAnsiEncoding def
  currentdict
end
/Courier-Oblique exch definefont pop
/Courier-BoldOblique findfont
dup length dict begin
  {1 index /FID ne {def} {pop pop} ifelse} forall
  /Encoding WinAnsiEncoding def
  currentdict
end
/Courier-BoldOblique exch definefont pop
/Courier-Bold findfont
dup length dict begin
  {1 index /FID ne {def} {pop pop} ifelse} forall
  /Encoding WinAnsiEncoding def
  currentdict
end
/Courier-Bold exch definefont pop
/Helvetica findfont
dup length dict begin
  {1 index /FID ne {def} {pop pop} ifelse} forall
  /Encoding WinAnsiEncoding def
  currentdict
end
/Helvetica exch definefont pop
/Helvetica-Oblique findfont
dup length dict begin
  {1 index /FID ne {def} {pop pop} ifelse} forall
  /Encoding WinAnsiEncoding def
  currentdict
end
/Helvetica-Oblique exch definefont pop
/Helvetica-Bold findfont
dup length dict begin
  {1 index /FID ne {def} {pop pop} ifelse} forall
  /Encoding WinAnsiEncoding def
  currentdict
end
/Helvetica-Bold exch definefont pop
/Helvetica-BoldOblique findfont
dup length dict begin
  {1 index /FID ne {def} {pop pop} ifelse} forall
  /Encoding WinAnsiEncoding def
  currentdict
end
/Helvetica-BoldOblique exch definefont pop
/Times-Roman findfont
dup length dict begin
  {1 index /FID ne {def} {pop pop} ifelse} forall
  /Encoding WinAnsiEncoding def
  currentdict
end
/Times-Roman exch definefont pop
/Times-Italic findfont
dup length dict begin
  {1 index /FID ne {def} {pop pop} ifelse} forall
  /Encoding WinAnsiEncoding def
  currentdict
end
/Times-Italic exch definefont pop
/Times-Bold findfont
dup length dict begin
  {1 index /FID ne {def} {pop pop} ifelse} forall
  /Encoding WinAnsiEncoding def
  currentdict
end
/Times-Bold exch definefont pop
/Times-BoldItalic findfont
dup length dict begin
  {1 index /FID ne {def} {pop pop} ifelse} forall
  /Encoding WinAnsiEncoding def
  currentdict
end
/Times-BoldItalic exch definefont pop
/Courier findfont
dup length dict begin
  {1 index /FID ne {def} {pop pop} ifelse} forall
  /Encoding WinAnsiEncoding def
  currentdict
end
/Courier exch definefont pop
%FOPEndFontReencode
%%EndProlog
%%Page: 1 1
%%PageBoundingBox: 0 0 420 315
%%BeginPageSetup
[1 0 0 -1 0 315] CT
%%EndPageSetup
GS
[0.75 0 0 0.75 0 0] CT
1 GC
N
0 0 560 420 re
f
GR
GS
[0.75 0 0 0.75 0 0] CT
1 GC
N
0 0 560 420 re
f
GR
GS
[0.75 0 0 0.75 0 0] CT
1 GC
N
73 374 M
507 374 L
507 31 L
73 31 L
cp
f
GR
GS
[0.75 0 0 0.75 0 0] CT
0.149 GC
2 setlinecap
1 LJ
0.667 LW
N
73 374 M
507 374 L
S
GR
GS
[0.75 0 0 0.75 0 0] CT
0.149 GC
2 setlinecap
1 LJ
0.667 LW
N
73 31 M
507 31 L
S
GR
GS
[0.75 0 0 0.75 0 0] CT
0.149 GC
2 setlinecap
1 LJ
0.667 LW
N
73 374 M
73 369.66 L
S
GR
GS
[0.75 0 0 0.75 0 0] CT
0.149 GC
2 setlinecap
1 LJ
0.667 LW
N
116.4 374 M
116.4 369.66 L
S
GR
GS
[0.75 0 0 0.75 0 0] CT
0.149 GC
2 setlinecap
1 LJ
0.667 LW
N
159.8 374 M
159.8 369.66 L
S
GR
GS
[0.75 0 0 0.75 0 0] CT
0.149 GC
2 setlinecap
1 LJ
0.667 LW
N
203.2 374 M
203.2 369.66 L
S
GR
GS
[0.75 0 0 0.75 0 0] CT
0.149 GC
2 setlinecap
1 LJ
0.667 LW
N
246.6 374 M
246.6 369.66 L
S
GR
GS
[0.75 0 0 0.75 0 0] CT
0.149 GC
2 setlinecap
1 LJ
0.667 LW
N
290 374 M
290 369.66 L
S
GR
GS
[0.75 0 0 0.75 0 0] CT
0.149 GC
2 setlinecap
1 LJ
0.667 LW
N
333.4 374 M
333.4 369.66 L
S
GR
GS
[0.75 0 0 0.75 0 0] CT
0.149 GC
2 setlinecap
1 LJ
0.667 LW
N
376.8 374 M
376.8 369.66 L
S
GR
GS
[0.75 0 0 0.75 0 0] CT
0.149 GC
2 setlinecap
1 LJ
0.667 LW
N
420.2 374 M
420.2 369.66 L
S
GR
GS
[0.75 0 0 0.75 0 0] CT
0.149 GC
2 setlinecap
1 LJ
0.667 LW
N
463.6 374 M
463.6 369.66 L
S
GR
GS
[0.75 0 0 0.75 0 0] CT
0.149 GC
2 setlinecap
1 LJ
0.667 LW
N
507 374 M
507 369.66 L
S
GR
GS
[0.75 0 0 0.75 0 0] CT
0.149 GC
2 setlinecap
1 LJ
0.667 LW
N
73 31 M
73 35.34 L
S
GR
GS
[0.75 0 0 0.75 0 0] CT
0.149 GC
2 setlinecap
1 LJ
0.667 LW
N
116.4 31 M
116.4 35.34 L
S
GR
GS
[0.75 0 0 0.75 0 0] CT
0.149 GC
2 setlinecap
1 LJ
0.667 LW
N
159.8 31 M
159.8 35.34 L
S
GR
GS
[0.75 0 0 0.75 0 0] CT
0.149 GC
2 setlinecap
1 LJ
0.667 LW
N
203.2 31 M
203.2 35.34 L
S
GR
GS
[0.75 0 0 0.75 0 0] CT
0.149 GC
2 setlinecap
1 LJ
0.667 LW
N
246.6 31 M
246.6 35.34 L
S
GR
GS
[0.75 0 0 0.75 0 0] CT
0.149 GC
2 setlinecap
1 LJ
0.667 LW
N
290 31 M
290 35.34 L
S
GR
GS
[0.75 0 0 0.75 0 0] CT
0.149 GC
2 setlinecap
1 LJ
0.667 LW
N
333.4 31 M
333.4 35.34 L
S
GR
GS
[0.75 0 0 0.75 0 0] CT
0.149 GC
2 setlinecap
1 LJ
0.667 LW
N
376.8 31 M
376.8 35.34 L
S
GR
GS
[0.75 0 0 0.75 0 0] CT
0.149 GC
2 setlinecap
1 LJ
0.667 LW
N
420.2 31 M
420.2 35.34 L
S
GR
GS
[0.75 0 0 0.75 0 0] CT
0.149 GC
2 setlinecap
1 LJ
0.667 LW
N
463.6 31 M
463.6 35.34 L
S
GR
GS
[0.75 0 0 0.75 0 0] CT
0.149 GC
2 setlinecap
1 LJ
0.667 LW
N
507 31 M
507 35.34 L
S
GR
GS
[0.75 0 0 0.75 54.75 284.50001] CT
0.149 GC
/Helvetica 13.333 F
GS
[1 0 0 1 0 0] CT
-4 14 moveto 
1 -1 scale
(0) t 
GR
GR
GS
[0.75 0 0 0.75 87.3 284.50001] CT
0.149 GC
/Helvetica 13.333 F
GS
[1 0 0 1 0 0] CT
-11.5 14 moveto 
1 -1 scale
(100) t 
GR
GR
GS
[0.75 0 0 0.75 119.85 284.50001] CT
0.149 GC
/Helvetica 13.333 F
GS
[1 0 0 1 0 0] CT
-11.5 14 moveto 
1 -1 scale
(200) t 
GR
GR
GS
[0.75 0 0 0.75 152.40001 284.50001] CT
0.149 GC
/Helvetica 13.333 F
GS
[1 0 0 1 0 0] CT
-11.5 14 moveto 
1 -1 scale
(300) t 
GR
GR
GS
[0.75 0 0 0.75 184.95 284.50001] CT
0.149 GC
/Helvetica 13.333 F
GS
[1 0 0 1 0 0] CT
-11.5 14 moveto 
1 -1 scale
(400) t 
GR
GR
GS
[0.75 0 0 0.75 217.5 284.50001] CT
0.149 GC
/Helvetica 13.333 F
GS
[1 0 0 1 0 0] CT
-11.5 14 moveto 
1 -1 scale
(500) t 
GR
GR
GS
[0.75 0 0 0.75 250.05002 284.50001] CT
0.149 GC
/Helvetica 13.333 F
GS
[1 0 0 1 0 0] CT
-11.5 14 moveto 
1 -1 scale
(600) t 
GR
GR
GS
[0.75 0 0 0.75 282.59999 284.50001] CT
0.149 GC
/Helvetica 13.333 F
GS
[1 0 0 1 0 0] CT
-11.5 14 moveto 
1 -1 scale
(700) t 
GR
GR
GS
[0.75 0 0 0.75 315.15001 284.50001] CT
0.149 GC
/Helvetica 13.333 F
GS
[1 0 0 1 0 0] CT
-11.5 14 moveto 
1 -1 scale
(800) t 
GR
GR
GS
[0.75 0 0 0.75 347.69998 284.50001] CT
0.149 GC
/Helvetica 13.333 F
GS
[1 0 0 1 0 0] CT
-11.5 14 moveto 
1 -1 scale
(900) t 
GR
GR
GS
[0.75 0 0 0.75 380.25 284.50001] CT
0.149 GC
/Helvetica 13.333 F
GS
[1 0 0 1 0 0] CT
-15 14 moveto 
1 -1 scale
(1000) t 
GR
GR
GS
[0.75 0 0 0.75 217.50016 298.24999] CT
0.149 GC
/Helvetica 14.667 F
GS
[1 0 0 1 0 0] CT
-36 15 moveto 
1 -1 scale
(time step n) t 
GR
GR
GS
[0.75 0 0 0.75 0 0] CT
0.149 GC
2 setlinecap
1 LJ
0.667 LW
N
73 374 M
73 31 L
S
GR
GS
[0.75 0 0 0.75 0 0] CT
0.149 GC
2 setlinecap
1 LJ
0.667 LW
N
507 374 M
507 31 L
S
GR
GS
[0.75 0 0 0.75 0 0] CT
0.149 GC
2 setlinecap
1 LJ
0.667 LW
N
73 374 M
77.34 374 L
S
GR
GS
[0.75 0 0 0.75 0 0] CT
0.149 GC
2 setlinecap
1 LJ
0.667 LW
N
73 325 M
77.34 325 L
S
GR
GS
[0.75 0 0 0.75 0 0] CT
0.149 GC
2 setlinecap
1 LJ
0.667 LW
N
73 276 M
77.34 276 L
S
GR
GS
[0.75 0 0 0.75 0 0] CT
0.149 GC
2 setlinecap
1 LJ
0.667 LW
N
73 227 M
77.34 227 L
S
GR
GS
[0.75 0 0 0.75 0 0] CT
0.149 GC
2 setlinecap
1 LJ
0.667 LW
N
73 178 M
77.34 178 L
S
GR
GS
[0.75 0 0 0.75 0 0] CT
0.149 GC
2 setlinecap
1 LJ
0.667 LW
N
73 129 M
77.34 129 L
S
GR
GS
[0.75 0 0 0.75 0 0] CT
0.149 GC
2 setlinecap
1 LJ
0.667 LW
N
73 80 M
77.34 80 L
S
GR
GS
[0.75 0 0 0.75 0 0] CT
0.149 GC
2 setlinecap
1 LJ
0.667 LW
N
73 31 M
77.34 31 L
S
GR
GS
[0.75 0 0 0.75 0 0] CT
0.149 GC
2 setlinecap
1 LJ
0.667 LW
N
507 374 M
502.66 374 L
S
GR
GS
[0.75 0 0 0.75 0 0] CT
0.149 GC
2 setlinecap
1 LJ
0.667 LW
N
507 325 M
502.66 325 L
S
GR
GS
[0.75 0 0 0.75 0 0] CT
0.149 GC
2 setlinecap
1 LJ
0.667 LW
N
507 276 M
502.66 276 L
S
GR
GS
[0.75 0 0 0.75 0 0] CT
0.149 GC
2 setlinecap
1 LJ
0.667 LW
N
507 227 M
502.66 227 L
S
GR
GS
[0.75 0 0 0.75 0 0] CT
0.149 GC
2 setlinecap
1 LJ
0.667 LW
N
507 178 M
502.66 178 L
S
GR
GS
[0.75 0 0 0.75 0 0] CT
0.149 GC
2 setlinecap
1 LJ
0.667 LW
N
507 129 M
502.66 129 L
S
GR
GS
[0.75 0 0 0.75 0 0] CT
0.149 GC
2 setlinecap
1 LJ
0.667 LW
N
507 80 M
502.66 80 L
S
GR
GS
[0.75 0 0 0.75 0 0] CT
0.149 GC
2 setlinecap
1 LJ
0.667 LW
N
507 31 M
502.66 31 L
S
GR
GS
[0.75 0 0 0.75 0 0] CT
0.149 GC
2 setlinecap
1 LJ
0.667 LW
N
73 374 M
75.17 374 L
S
GR
GS
[0.75 0 0 0.75 0 0] CT
0.149 GC
2 setlinecap
1 LJ
0.667 LW
N
73 366.625 M
75.17 366.625 L
S
GR
GS
[0.75 0 0 0.75 0 0] CT
0.149 GC
2 setlinecap
1 LJ
0.667 LW
N
73 362.311 M
75.17 362.311 L
S
GR
GS
[0.75 0 0 0.75 0 0] CT
0.149 GC
2 setlinecap
1 LJ
0.667 LW
N
73 359.25 M
75.17 359.25 L
S
GR
GS
[0.75 0 0 0.75 0 0] CT
0.149 GC
2 setlinecap
1 LJ
0.667 LW
N
73 356.875 M
75.17 356.875 L
S
GR
GS
[0.75 0 0 0.75 0 0] CT
0.149 GC
2 setlinecap
1 LJ
0.667 LW
N
73 354.935 M
75.17 354.935 L
S
GR
GS
[0.75 0 0 0.75 0 0] CT
0.149 GC
2 setlinecap
1 LJ
0.667 LW
N
73 353.295 M
75.17 353.295 L
S
GR
GS
[0.75 0 0 0.75 0 0] CT
0.149 GC
2 setlinecap
1 LJ
0.667 LW
N
73 351.874 M
75.17 351.874 L
S
GR
GS
[0.75 0 0 0.75 0 0] CT
0.149 GC
2 setlinecap
1 LJ
0.667 LW
N
73 350.621 M
75.17 350.621 L
S
GR
GS
[0.75 0 0 0.75 0 0] CT
0.149 GC
2 setlinecap
1 LJ
0.667 LW
N
73 349.5 M
75.17 349.5 L
S
GR
GS
[0.75 0 0 0.75 0 0] CT
0.149 GC
2 setlinecap
1 LJ
0.667 LW
N
73 349.5 M
75.17 349.5 L
S
GR
GS
[0.75 0 0 0.75 0 0] CT
0.149 GC
2 setlinecap
1 LJ
0.667 LW
N
73 342.125 M
75.17 342.125 L
S
GR
GS
[0.75 0 0 0.75 0 0] CT
0.149 GC
2 setlinecap
1 LJ
0.667 LW
N
73 337.811 M
75.17 337.811 L
S
GR
GS
[0.75 0 0 0.75 0 0] CT
0.149 GC
2 setlinecap
1 LJ
0.667 LW
N
73 334.75 M
75.17 334.75 L
S
GR
GS
[0.75 0 0 0.75 0 0] CT
0.149 GC
2 setlinecap
1 LJ
0.667 LW
N
73 332.375 M
75.17 332.375 L
S
GR
GS
[0.75 0 0 0.75 0 0] CT
0.149 GC
2 setlinecap
1 LJ
0.667 LW
N
73 330.435 M
75.17 330.435 L
S
GR
GS
[0.75 0 0 0.75 0 0] CT
0.149 GC
2 setlinecap
1 LJ
0.667 LW
N
73 328.795 M
75.17 328.795 L
S
GR
GS
[0.75 0 0 0.75 0 0] CT
0.149 GC
2 setlinecap
1 LJ
0.667 LW
N
73 327.374 M
75.17 327.374 L
S
GR
GS
[0.75 0 0 0.75 0 0] CT
0.149 GC
2 setlinecap
1 LJ
0.667 LW
N
73 326.121 M
75.17 326.121 L
S
GR
GS
[0.75 0 0 0.75 0 0] CT
0.149 GC
2 setlinecap
1 LJ
0.667 LW
N
73 325 M
75.17 325 L
S
GR
GS
[0.75 0 0 0.75 0 0] CT
0.149 GC
2 setlinecap
1 LJ
0.667 LW
N
73 317.625 M
75.17 317.625 L
S
GR
GS
[0.75 0 0 0.75 0 0] CT
0.149 GC
2 setlinecap
1 LJ
0.667 LW
N
73 313.311 M
75.17 313.311 L
S
GR
GS
[0.75 0 0 0.75 0 0] CT
0.149 GC
2 setlinecap
1 LJ
0.667 LW
N
73 310.25 M
75.17 310.25 L
S
GR
GS
[0.75 0 0 0.75 0 0] CT
0.149 GC
2 setlinecap
1 LJ
0.667 LW
N
73 307.875 M
75.17 307.875 L
S
GR
GS
[0.75 0 0 0.75 0 0] CT
0.149 GC
2 setlinecap
1 LJ
0.667 LW
N
73 305.935 M
75.17 305.935 L
S
GR
GS
[0.75 0 0 0.75 0 0] CT
0.149 GC
2 setlinecap
1 LJ
0.667 LW
N
73 304.295 M
75.17 304.295 L
S
GR
GS
[0.75 0 0 0.75 0 0] CT
0.149 GC
2 setlinecap
1 LJ
0.667 LW
N
73 302.874 M
75.17 302.874 L
S
GR
GS
[0.75 0 0 0.75 0 0] CT
0.149 GC
2 setlinecap
1 LJ
0.667 LW
N
73 301.621 M
75.17 301.621 L
S
GR
GS
[0.75 0 0 0.75 0 0] CT
0.149 GC
2 setlinecap
1 LJ
0.667 LW
N
73 300.5 M
75.17 300.5 L
S
GR
GS
[0.75 0 0 0.75 0 0] CT
0.149 GC
2 setlinecap
1 LJ
0.667 LW
N
73 293.125 M
75.17 293.125 L
S
GR
GS
[0.75 0 0 0.75 0 0] CT
0.149 GC
2 setlinecap
1 LJ
0.667 LW
N
73 288.811 M
75.17 288.811 L
S
GR
GS
[0.75 0 0 0.75 0 0] CT
0.149 GC
2 setlinecap
1 LJ
0.667 LW
N
73 285.75 M
75.17 285.75 L
S
GR
GS
[0.75 0 0 0.75 0 0] CT
0.149 GC
2 setlinecap
1 LJ
0.667 LW
N
73 283.375 M
75.17 283.375 L
S
GR
GS
[0.75 0 0 0.75 0 0] CT
0.149 GC
2 setlinecap
1 LJ
0.667 LW
N
73 281.435 M
75.17 281.435 L
S
GR
GS
[0.75 0 0 0.75 0 0] CT
0.149 GC
2 setlinecap
1 LJ
0.667 LW
N
73 279.795 M
75.17 279.795 L
S
GR
GS
[0.75 0 0 0.75 0 0] CT
0.149 GC
2 setlinecap
1 LJ
0.667 LW
N
73 278.374 M
75.17 278.374 L
S
GR
GS
[0.75 0 0 0.75 0 0] CT
0.149 GC
2 setlinecap
1 LJ
0.667 LW
N
73 277.121 M
75.17 277.121 L
S
GR
GS
[0.75 0 0 0.75 0 0] CT
0.149 GC
2 setlinecap
1 LJ
0.667 LW
N
73 276 M
75.17 276 L
S
GR
GS
[0.75 0 0 0.75 0 0] CT
0.149 GC
2 setlinecap
1 LJ
0.667 LW
N
73 268.625 M
75.17 268.625 L
S
GR
GS
[0.75 0 0 0.75 0 0] CT
0.149 GC
2 setlinecap
1 LJ
0.667 LW
N
73 264.311 M
75.17 264.311 L
S
GR
GS
[0.75 0 0 0.75 0 0] CT
0.149 GC
2 setlinecap
1 LJ
0.667 LW
N
73 261.25 M
75.17 261.25 L
S
GR
GS
[0.75 0 0 0.75 0 0] CT
0.149 GC
2 setlinecap
1 LJ
0.667 LW
N
73 258.875 M
75.17 258.875 L
S
GR
GS
[0.75 0 0 0.75 0 0] CT
0.149 GC
2 setlinecap
1 LJ
0.667 LW
N
73 256.935 M
75.17 256.935 L
S
GR
GS
[0.75 0 0 0.75 0 0] CT
0.149 GC
2 setlinecap
1 LJ
0.667 LW
N
73 255.295 M
75.17 255.295 L
S
GR
GS
[0.75 0 0 0.75 0 0] CT
0.149 GC
2 setlinecap
1 LJ
0.667 LW
N
73 253.874 M
75.17 253.874 L
S
GR
GS
[0.75 0 0 0.75 0 0] CT
0.149 GC
2 setlinecap
1 LJ
0.667 LW
N
73 252.621 M
75.17 252.621 L
S
GR
GS
[0.75 0 0 0.75 0 0] CT
0.149 GC
2 setlinecap
1 LJ
0.667 LW
N
73 251.5 M
75.17 251.5 L
S
GR
GS
[0.75 0 0 0.75 0 0] CT
0.149 GC
2 setlinecap
1 LJ
0.667 LW
N
73 244.125 M
75.17 244.125 L
S
GR
GS
[0.75 0 0 0.75 0 0] CT
0.149 GC
2 setlinecap
1 LJ
0.667 LW
N
73 239.811 M
75.17 239.811 L
S
GR
GS
[0.75 0 0 0.75 0 0] CT
0.149 GC
2 setlinecap
1 LJ
0.667 LW
N
73 236.75 M
75.17 236.75 L
S
GR
GS
[0.75 0 0 0.75 0 0] CT
0.149 GC
2 setlinecap
1 LJ
0.667 LW
N
73 234.375 M
75.17 234.375 L
S
GR
GS
[0.75 0 0 0.75 0 0] CT
0.149 GC
2 setlinecap
1 LJ
0.667 LW
N
73 232.435 M
75.17 232.435 L
S
GR
GS
[0.75 0 0 0.75 0 0] CT
0.149 GC
2 setlinecap
1 LJ
0.667 LW
N
73 230.795 M
75.17 230.795 L
S
GR
GS
[0.75 0 0 0.75 0 0] CT
0.149 GC
2 setlinecap
1 LJ
0.667 LW
N
73 229.374 M
75.17 229.374 L
S
GR
GS
[0.75 0 0 0.75 0 0] CT
0.149 GC
2 setlinecap
1 LJ
0.667 LW
N
73 228.121 M
75.17 228.121 L
S
GR
GS
[0.75 0 0 0.75 0 0] CT
0.149 GC
2 setlinecap
1 LJ
0.667 LW
N
73 227 M
75.17 227 L
S
GR
GS
[0.75 0 0 0.75 0 0] CT
0.149 GC
2 setlinecap
1 LJ
0.667 LW
N
73 219.625 M
75.17 219.625 L
S
GR
GS
[0.75 0 0 0.75 0 0] CT
0.149 GC
2 setlinecap
1 LJ
0.667 LW
N
73 215.311 M
75.17 215.311 L
S
GR
GS
[0.75 0 0 0.75 0 0] CT
0.149 GC
2 setlinecap
1 LJ
0.667 LW
N
73 212.25 M
75.17 212.25 L
S
GR
GS
[0.75 0 0 0.75 0 0] CT
0.149 GC
2 setlinecap
1 LJ
0.667 LW
N
73 209.875 M
75.17 209.875 L
S
GR
GS
[0.75 0 0 0.75 0 0] CT
0.149 GC
2 setlinecap
1 LJ
0.667 LW
N
73 207.935 M
75.17 207.935 L
S
GR
GS
[0.75 0 0 0.75 0 0] CT
0.149 GC
2 setlinecap
1 LJ
0.667 LW
N
73 206.295 M
75.17 206.295 L
S
GR
GS
[0.75 0 0 0.75 0 0] CT
0.149 GC
2 setlinecap
1 LJ
0.667 LW
N
73 204.874 M
75.17 204.874 L
S
GR
GS
[0.75 0 0 0.75 0 0] CT
0.149 GC
2 setlinecap
1 LJ
0.667 LW
N
73 203.621 M
75.17 203.621 L
S
GR
GS
[0.75 0 0 0.75 0 0] CT
0.149 GC
2 setlinecap
1 LJ
0.667 LW
N
73 202.5 M
75.17 202.5 L
S
GR
GS
[0.75 0 0 0.75 0 0] CT
0.149 GC
2 setlinecap
1 LJ
0.667 LW
N
73 195.125 M
75.17 195.125 L
S
GR
GS
[0.75 0 0 0.75 0 0] CT
0.149 GC
2 setlinecap
1 LJ
0.667 LW
N
73 190.811 M
75.17 190.811 L
S
GR
GS
[0.75 0 0 0.75 0 0] CT
0.149 GC
2 setlinecap
1 LJ
0.667 LW
N
73 187.75 M
75.17 187.75 L
S
GR
GS
[0.75 0 0 0.75 0 0] CT
0.149 GC
2 setlinecap
1 LJ
0.667 LW
N
73 185.375 M
75.17 185.375 L
S
GR
GS
[0.75 0 0 0.75 0 0] CT
0.149 GC
2 setlinecap
1 LJ
0.667 LW
N
73 183.435 M
75.17 183.435 L
S
GR
GS
[0.75 0 0 0.75 0 0] CT
0.149 GC
2 setlinecap
1 LJ
0.667 LW
N
73 181.795 M
75.17 181.795 L
S
GR
GS
[0.75 0 0 0.75 0 0] CT
0.149 GC
2 setlinecap
1 LJ
0.667 LW
N
73 180.374 M
75.17 180.374 L
S
GR
GS
[0.75 0 0 0.75 0 0] CT
0.149 GC
2 setlinecap
1 LJ
0.667 LW
N
73 179.121 M
75.17 179.121 L
S
GR
GS
[0.75 0 0 0.75 0 0] CT
0.149 GC
2 setlinecap
1 LJ
0.667 LW
N
73 178 M
75.17 178 L
S
GR
GS
[0.75 0 0 0.75 0 0] CT
0.149 GC
2 setlinecap
1 LJ
0.667 LW
N
73 178 M
75.17 178 L
S
GR
GS
[0.75 0 0 0.75 0 0] CT
0.149 GC
2 setlinecap
1 LJ
0.667 LW
N
73 170.625 M
75.17 170.625 L
S
GR
GS
[0.75 0 0 0.75 0 0] CT
0.149 GC
2 setlinecap
1 LJ
0.667 LW
N
73 166.311 M
75.17 166.311 L
S
GR
GS
[0.75 0 0 0.75 0 0] CT
0.149 GC
2 setlinecap
1 LJ
0.667 LW
N
73 163.25 M
75.17 163.25 L
S
GR
GS
[0.75 0 0 0.75 0 0] CT
0.149 GC
2 setlinecap
1 LJ
0.667 LW
N
73 160.875 M
75.17 160.875 L
S
GR
GS
[0.75 0 0 0.75 0 0] CT
0.149 GC
2 setlinecap
1 LJ
0.667 LW
N
73 158.935 M
75.17 158.935 L
S
GR
GS
[0.75 0 0 0.75 0 0] CT
0.149 GC
2 setlinecap
1 LJ
0.667 LW
N
73 157.295 M
75.17 157.295 L
S
GR
GS
[0.75 0 0 0.75 0 0] CT
0.149 GC
2 setlinecap
1 LJ
0.667 LW
N
73 155.874 M
75.17 155.874 L
S
GR
GS
[0.75 0 0 0.75 0 0] CT
0.149 GC
2 setlinecap
1 LJ
0.667 LW
N
73 154.621 M
75.17 154.621 L
S
GR
GS
[0.75 0 0 0.75 0 0] CT
0.149 GC
2 setlinecap
1 LJ
0.667 LW
N
73 153.5 M
75.17 153.5 L
S
GR
GS
[0.75 0 0 0.75 0 0] CT
0.149 GC
2 setlinecap
1 LJ
0.667 LW
N
73 146.125 M
75.17 146.125 L
S
GR
GS
[0.75 0 0 0.75 0 0] CT
0.149 GC
2 setlinecap
1 LJ
0.667 LW
N
73 141.811 M
75.17 141.811 L
S
GR
GS
[0.75 0 0 0.75 0 0] CT
0.149 GC
2 setlinecap
1 LJ
0.667 LW
N
73 138.75 M
75.17 138.75 L
S
GR
GS
[0.75 0 0 0.75 0 0] CT
0.149 GC
2 setlinecap
1 LJ
0.667 LW
N
73 136.375 M
75.17 136.375 L
S
GR
GS
[0.75 0 0 0.75 0 0] CT
0.149 GC
2 setlinecap
1 LJ
0.667 LW
N
73 134.435 M
75.17 134.435 L
S
GR
GS
[0.75 0 0 0.75 0 0] CT
0.149 GC
2 setlinecap
1 LJ
0.667 LW
N
73 132.795 M
75.17 132.795 L
S
GR
GS
[0.75 0 0 0.75 0 0] CT
0.149 GC
2 setlinecap
1 LJ
0.667 LW
N
73 131.374 M
75.17 131.374 L
S
GR
GS
[0.75 0 0 0.75 0 0] CT
0.149 GC
2 setlinecap
1 LJ
0.667 LW
N
73 130.121 M
75.17 130.121 L
S
GR
GS
[0.75 0 0 0.75 0 0] CT
0.149 GC
2 setlinecap
1 LJ
0.667 LW
N
73 129 M
75.17 129 L
S
GR
GS
[0.75 0 0 0.75 0 0] CT
0.149 GC
2 setlinecap
1 LJ
0.667 LW
N
73 121.625 M
75.17 121.625 L
S
GR
GS
[0.75 0 0 0.75 0 0] CT
0.149 GC
2 setlinecap
1 LJ
0.667 LW
N
73 117.311 M
75.17 117.311 L
S
GR
GS
[0.75 0 0 0.75 0 0] CT
0.149 GC
2 setlinecap
1 LJ
0.667 LW
N
73 114.25 M
75.17 114.25 L
S
GR
GS
[0.75 0 0 0.75 0 0] CT
0.149 GC
2 setlinecap
1 LJ
0.667 LW
N
73 111.875 M
75.17 111.875 L
S
GR
GS
[0.75 0 0 0.75 0 0] CT
0.149 GC
2 setlinecap
1 LJ
0.667 LW
N
73 109.935 M
75.17 109.935 L
S
GR
GS
[0.75 0 0 0.75 0 0] CT
0.149 GC
2 setlinecap
1 LJ
0.667 LW
N
73 108.295 M
75.17 108.295 L
S
GR
GS
[0.75 0 0 0.75 0 0] CT
0.149 GC
2 setlinecap
1 LJ
0.667 LW
N
73 106.874 M
75.17 106.874 L
S
GR
GS
[0.75 0 0 0.75 0 0] CT
0.149 GC
2 setlinecap
1 LJ
0.667 LW
N
73 105.621 M
75.17 105.621 L
S
GR
GS
[0.75 0 0 0.75 0 0] CT
0.149 GC
2 setlinecap
1 LJ
0.667 LW
N
73 104.5 M
75.17 104.5 L
S
GR
GS
[0.75 0 0 0.75 0 0] CT
0.149 GC
2 setlinecap
1 LJ
0.667 LW
N
73 97.125 M
75.17 97.125 L
S
GR
GS
[0.75 0 0 0.75 0 0] CT
0.149 GC
2 setlinecap
1 LJ
0.667 LW
N
73 92.811 M
75.17 92.811 L
S
GR
GS
[0.75 0 0 0.75 0 0] CT
0.149 GC
2 setlinecap
1 LJ
0.667 LW
N
73 89.75 M
75.17 89.75 L
S
GR
GS
[0.75 0 0 0.75 0 0] CT
0.149 GC
2 setlinecap
1 LJ
0.667 LW
N
73 87.375 M
75.17 87.375 L
S
GR
GS
[0.75 0 0 0.75 0 0] CT
0.149 GC
2 setlinecap
1 LJ
0.667 LW
N
73 85.435 M
75.17 85.435 L
S
GR
GS
[0.75 0 0 0.75 0 0] CT
0.149 GC
2 setlinecap
1 LJ
0.667 LW
N
73 83.795 M
75.17 83.795 L
S
GR
GS
[0.75 0 0 0.75 0 0] CT
0.149 GC
2 setlinecap
1 LJ
0.667 LW
N
73 82.374 M
75.17 82.374 L
S
GR
GS
[0.75 0 0 0.75 0 0] CT
0.149 GC
2 setlinecap
1 LJ
0.667 LW
N
73 81.121 M
75.17 81.121 L
S
GR
GS
[0.75 0 0 0.75 0 0] CT
0.149 GC
2 setlinecap
1 LJ
0.667 LW
N
73 80 M
75.17 80 L
S
GR
GS
[0.75 0 0 0.75 0 0] CT
0.149 GC
2 setlinecap
1 LJ
0.667 LW
N
73 72.625 M
75.17 72.625 L
S
GR
GS
[0.75 0 0 0.75 0 0] CT
0.149 GC
2 setlinecap
1 LJ
0.667 LW
N
73 68.311 M
75.17 68.311 L
S
GR
GS
[0.75 0 0 0.75 0 0] CT
0.149 GC
2 setlinecap
1 LJ
0.667 LW
N
73 65.25 M
75.17 65.25 L
S
GR
GS
[0.75 0 0 0.75 0 0] CT
0.149 GC
2 setlinecap
1 LJ
0.667 LW
N
73 62.875 M
75.17 62.875 L
S
GR
GS
[0.75 0 0 0.75 0 0] CT
0.149 GC
2 setlinecap
1 LJ
0.667 LW
N
73 60.935 M
75.17 60.935 L
S
GR
GS
[0.75 0 0 0.75 0 0] CT
0.149 GC
2 setlinecap
1 LJ
0.667 LW
N
73 59.295 M
75.17 59.295 L
S
GR
GS
[0.75 0 0 0.75 0 0] CT
0.149 GC
2 setlinecap
1 LJ
0.667 LW
N
73 57.874 M
75.17 57.874 L
S
GR
GS
[0.75 0 0 0.75 0 0] CT
0.149 GC
2 setlinecap
1 LJ
0.667 LW
N
73 56.621 M
75.17 56.621 L
S
GR
GS
[0.75 0 0 0.75 0 0] CT
0.149 GC
2 setlinecap
1 LJ
0.667 LW
N
73 55.5 M
75.17 55.5 L
S
GR
GS
[0.75 0 0 0.75 0 0] CT
0.149 GC
2 setlinecap
1 LJ
0.667 LW
N
73 48.125 M
75.17 48.125 L
S
GR
GS
[0.75 0 0 0.75 0 0] CT
0.149 GC
2 setlinecap
1 LJ
0.667 LW
N
73 43.811 M
75.17 43.811 L
S
GR
GS
[0.75 0 0 0.75 0 0] CT
0.149 GC
2 setlinecap
1 LJ
0.667 LW
N
73 40.75 M
75.17 40.75 L
S
GR
GS
[0.75 0 0 0.75 0 0] CT
0.149 GC
2 setlinecap
1 LJ
0.667 LW
N
73 38.375 M
75.17 38.375 L
S
GR
GS
[0.75 0 0 0.75 0 0] CT
0.149 GC
2 setlinecap
1 LJ
0.667 LW
N
73 36.435 M
75.17 36.435 L
S
GR
GS
[0.75 0 0 0.75 0 0] CT
0.149 GC
2 setlinecap
1 LJ
0.667 LW
N
73 34.795 M
75.17 34.795 L
S
GR
GS
[0.75 0 0 0.75 0 0] CT
0.149 GC
2 setlinecap
1 LJ
0.667 LW
N
73 33.374 M
75.17 33.374 L
S
GR
GS
[0.75 0 0 0.75 0 0] CT
0.149 GC
2 setlinecap
1 LJ
0.667 LW
N
73 32.121 M
75.17 32.121 L
S
GR
GS
[0.75 0 0 0.75 0 0] CT
0.149 GC
2 setlinecap
1 LJ
0.667 LW
N
73 31 M
75.17 31 L
S
GR
GS
[0.75 0 0 0.75 0 0] CT
0.149 GC
2 setlinecap
1 LJ
0.667 LW
N
507 374 M
504.83 374 L
S
GR
GS
[0.75 0 0 0.75 0 0] CT
0.149 GC
2 setlinecap
1 LJ
0.667 LW
N
507 366.625 M
504.83 366.625 L
S
GR
GS
[0.75 0 0 0.75 0 0] CT
0.149 GC
2 setlinecap
1 LJ
0.667 LW
N
507 362.311 M
504.83 362.311 L
S
GR
GS
[0.75 0 0 0.75 0 0] CT
0.149 GC
2 setlinecap
1 LJ
0.667 LW
N
507 359.25 M
504.83 359.25 L
S
GR
GS
[0.75 0 0 0.75 0 0] CT
0.149 GC
2 setlinecap
1 LJ
0.667 LW
N
507 356.875 M
504.83 356.875 L
S
GR
GS
[0.75 0 0 0.75 0 0] CT
0.149 GC
2 setlinecap
1 LJ
0.667 LW
N
507 354.935 M
504.83 354.935 L
S
GR
GS
[0.75 0 0 0.75 0 0] CT
0.149 GC
2 setlinecap
1 LJ
0.667 LW
N
507 353.295 M
504.83 353.295 L
S
GR
GS
[0.75 0 0 0.75 0 0] CT
0.149 GC
2 setlinecap
1 LJ
0.667 LW
N
507 351.874 M
504.83 351.874 L
S
GR
GS
[0.75 0 0 0.75 0 0] CT
0.149 GC
2 setlinecap
1 LJ
0.667 LW
N
507 350.621 M
504.83 350.621 L
S
GR
GS
[0.75 0 0 0.75 0 0] CT
0.149 GC
2 setlinecap
1 LJ
0.667 LW
N
507 349.5 M
504.83 349.5 L
S
GR
GS
[0.75 0 0 0.75 0 0] CT
0.149 GC
2 setlinecap
1 LJ
0.667 LW
N
507 349.5 M
504.83 349.5 L
S
GR
GS
[0.75 0 0 0.75 0 0] CT
0.149 GC
2 setlinecap
1 LJ
0.667 LW
N
507 342.125 M
504.83 342.125 L
S
GR
GS
[0.75 0 0 0.75 0 0] CT
0.149 GC
2 setlinecap
1 LJ
0.667 LW
N
507 337.811 M
504.83 337.811 L
S
GR
GS
[0.75 0 0 0.75 0 0] CT
0.149 GC
2 setlinecap
1 LJ
0.667 LW
N
507 334.75 M
504.83 334.75 L
S
GR
GS
[0.75 0 0 0.75 0 0] CT
0.149 GC
2 setlinecap
1 LJ
0.667 LW
N
507 332.375 M
504.83 332.375 L
S
GR
GS
[0.75 0 0 0.75 0 0] CT
0.149 GC
2 setlinecap
1 LJ
0.667 LW
N
507 330.435 M
504.83 330.435 L
S
GR
GS
[0.75 0 0 0.75 0 0] CT
0.149 GC
2 setlinecap
1 LJ
0.667 LW
N
507 328.795 M
504.83 328.795 L
S
GR
GS
[0.75 0 0 0.75 0 0] CT
0.149 GC
2 setlinecap
1 LJ
0.667 LW
N
507 327.374 M
504.83 327.374 L
S
GR
GS
[0.75 0 0 0.75 0 0] CT
0.149 GC
2 setlinecap
1 LJ
0.667 LW
N
507 326.121 M
504.83 326.121 L
S
GR
GS
[0.75 0 0 0.75 0 0] CT
0.149 GC
2 setlinecap
1 LJ
0.667 LW
N
507 325 M
504.83 325 L
S
GR
GS
[0.75 0 0 0.75 0 0] CT
0.149 GC
2 setlinecap
1 LJ
0.667 LW
N
507 317.625 M
504.83 317.625 L
S
GR
GS
[0.75 0 0 0.75 0 0] CT
0.149 GC
2 setlinecap
1 LJ
0.667 LW
N
507 313.311 M
504.83 313.311 L
S
GR
GS
[0.75 0 0 0.75 0 0] CT
0.149 GC
2 setlinecap
1 LJ
0.667 LW
N
507 310.25 M
504.83 310.25 L
S
GR
GS
[0.75 0 0 0.75 0 0] CT
0.149 GC
2 setlinecap
1 LJ
0.667 LW
N
507 307.875 M
504.83 307.875 L
S
GR
GS
[0.75 0 0 0.75 0 0] CT
0.149 GC
2 setlinecap
1 LJ
0.667 LW
N
507 305.935 M
504.83 305.935 L
S
GR
GS
[0.75 0 0 0.75 0 0] CT
0.149 GC
2 setlinecap
1 LJ
0.667 LW
N
507 304.295 M
504.83 304.295 L
S
GR
GS
[0.75 0 0 0.75 0 0] CT
0.149 GC
2 setlinecap
1 LJ
0.667 LW
N
507 302.874 M
504.83 302.874 L
S
GR
GS
[0.75 0 0 0.75 0 0] CT
0.149 GC
2 setlinecap
1 LJ
0.667 LW
N
507 301.621 M
504.83 301.621 L
S
GR
GS
[0.75 0 0 0.75 0 0] CT
0.149 GC
2 setlinecap
1 LJ
0.667 LW
N
507 300.5 M
504.83 300.5 L
S
GR
GS
[0.75 0 0 0.75 0 0] CT
0.149 GC
2 setlinecap
1 LJ
0.667 LW
N
507 293.125 M
504.83 293.125 L
S
GR
GS
[0.75 0 0 0.75 0 0] CT
0.149 GC
2 setlinecap
1 LJ
0.667 LW
N
507 288.811 M
504.83 288.811 L
S
GR
GS
[0.75 0 0 0.75 0 0] CT
0.149 GC
2 setlinecap
1 LJ
0.667 LW
N
507 285.75 M
504.83 285.75 L
S
GR
GS
[0.75 0 0 0.75 0 0] CT
0.149 GC
2 setlinecap
1 LJ
0.667 LW
N
507 283.375 M
504.83 283.375 L
S
GR
GS
[0.75 0 0 0.75 0 0] CT
0.149 GC
2 setlinecap
1 LJ
0.667 LW
N
507 281.435 M
504.83 281.435 L
S
GR
GS
[0.75 0 0 0.75 0 0] CT
0.149 GC
2 setlinecap
1 LJ
0.667 LW
N
507 279.795 M
504.83 279.795 L
S
GR
GS
[0.75 0 0 0.75 0 0] CT
0.149 GC
2 setlinecap
1 LJ
0.667 LW
N
507 278.374 M
504.83 278.374 L
S
GR
GS
[0.75 0 0 0.75 0 0] CT
0.149 GC
2 setlinecap
1 LJ
0.667 LW
N
507 277.121 M
504.83 277.121 L
S
GR
GS
[0.75 0 0 0.75 0 0] CT
0.149 GC
2 setlinecap
1 LJ
0.667 LW
N
507 276 M
504.83 276 L
S
GR
GS
[0.75 0 0 0.75 0 0] CT
0.149 GC
2 setlinecap
1 LJ
0.667 LW
N
507 268.625 M
504.83 268.625 L
S
GR
GS
[0.75 0 0 0.75 0 0] CT
0.149 GC
2 setlinecap
1 LJ
0.667 LW
N
507 264.311 M
504.83 264.311 L
S
GR
GS
[0.75 0 0 0.75 0 0] CT
0.149 GC
2 setlinecap
1 LJ
0.667 LW
N
507 261.25 M
504.83 261.25 L
S
GR
GS
[0.75 0 0 0.75 0 0] CT
0.149 GC
2 setlinecap
1 LJ
0.667 LW
N
507 258.875 M
504.83 258.875 L
S
GR
GS
[0.75 0 0 0.75 0 0] CT
0.149 GC
2 setlinecap
1 LJ
0.667 LW
N
507 256.935 M
504.83 256.935 L
S
GR
GS
[0.75 0 0 0.75 0 0] CT
0.149 GC
2 setlinecap
1 LJ
0.667 LW
N
507 255.295 M
504.83 255.295 L
S
GR
GS
[0.75 0 0 0.75 0 0] CT
0.149 GC
2 setlinecap
1 LJ
0.667 LW
N
507 253.874 M
504.83 253.874 L
S
GR
GS
[0.75 0 0 0.75 0 0] CT
0.149 GC
2 setlinecap
1 LJ
0.667 LW
N
507 252.621 M
504.83 252.621 L
S
GR
GS
[0.75 0 0 0.75 0 0] CT
0.149 GC
2 setlinecap
1 LJ
0.667 LW
N
507 251.5 M
504.83 251.5 L
S
GR
GS
[0.75 0 0 0.75 0 0] CT
0.149 GC
2 setlinecap
1 LJ
0.667 LW
N
507 244.125 M
504.83 244.125 L
S
GR
GS
[0.75 0 0 0.75 0 0] CT
0.149 GC
2 setlinecap
1 LJ
0.667 LW
N
507 239.811 M
504.83 239.811 L
S
GR
GS
[0.75 0 0 0.75 0 0] CT
0.149 GC
2 setlinecap
1 LJ
0.667 LW
N
507 236.75 M
504.83 236.75 L
S
GR
GS
[0.75 0 0 0.75 0 0] CT
0.149 GC
2 setlinecap
1 LJ
0.667 LW
N
507 234.375 M
504.83 234.375 L
S
GR
GS
[0.75 0 0 0.75 0 0] CT
0.149 GC
2 setlinecap
1 LJ
0.667 LW
N
507 232.435 M
504.83 232.435 L
S
GR
GS
[0.75 0 0 0.75 0 0] CT
0.149 GC
2 setlinecap
1 LJ
0.667 LW
N
507 230.795 M
504.83 230.795 L
S
GR
GS
[0.75 0 0 0.75 0 0] CT
0.149 GC
2 setlinecap
1 LJ
0.667 LW
N
507 229.374 M
504.83 229.374 L
S
GR
GS
[0.75 0 0 0.75 0 0] CT
0.149 GC
2 setlinecap
1 LJ
0.667 LW
N
507 228.121 M
504.83 228.121 L
S
GR
GS
[0.75 0 0 0.75 0 0] CT
0.149 GC
2 setlinecap
1 LJ
0.667 LW
N
507 227 M
504.83 227 L
S
GR
GS
[0.75 0 0 0.75 0 0] CT
0.149 GC
2 setlinecap
1 LJ
0.667 LW
N
507 219.625 M
504.83 219.625 L
S
GR
GS
[0.75 0 0 0.75 0 0] CT
0.149 GC
2 setlinecap
1 LJ
0.667 LW
N
507 215.311 M
504.83 215.311 L
S
GR
GS
[0.75 0 0 0.75 0 0] CT
0.149 GC
2 setlinecap
1 LJ
0.667 LW
N
507 212.25 M
504.83 212.25 L
S
GR
GS
[0.75 0 0 0.75 0 0] CT
0.149 GC
2 setlinecap
1 LJ
0.667 LW
N
507 209.875 M
504.83 209.875 L
S
GR
GS
[0.75 0 0 0.75 0 0] CT
0.149 GC
2 setlinecap
1 LJ
0.667 LW
N
507 207.935 M
504.83 207.935 L
S
GR
GS
[0.75 0 0 0.75 0 0] CT
0.149 GC
2 setlinecap
1 LJ
0.667 LW
N
507 206.295 M
504.83 206.295 L
S
GR
GS
[0.75 0 0 0.75 0 0] CT
0.149 GC
2 setlinecap
1 LJ
0.667 LW
N
507 204.874 M
504.83 204.874 L
S
GR
GS
[0.75 0 0 0.75 0 0] CT
0.149 GC
2 setlinecap
1 LJ
0.667 LW
N
507 203.621 M
504.83 203.621 L
S
GR
GS
[0.75 0 0 0.75 0 0] CT
0.149 GC
2 setlinecap
1 LJ
0.667 LW
N
507 202.5 M
504.83 202.5 L
S
GR
GS
[0.75 0 0 0.75 0 0] CT
0.149 GC
2 setlinecap
1 LJ
0.667 LW
N
507 195.125 M
504.83 195.125 L
S
GR
GS
[0.75 0 0 0.75 0 0] CT
0.149 GC
2 setlinecap
1 LJ
0.667 LW
N
507 190.811 M
504.83 190.811 L
S
GR
GS
[0.75 0 0 0.75 0 0] CT
0.149 GC
2 setlinecap
1 LJ
0.667 LW
N
507 187.75 M
504.83 187.75 L
S
GR
GS
[0.75 0 0 0.75 0 0] CT
0.149 GC
2 setlinecap
1 LJ
0.667 LW
N
507 185.375 M
504.83 185.375 L
S
GR
GS
[0.75 0 0 0.75 0 0] CT
0.149 GC
2 setlinecap
1 LJ
0.667 LW
N
507 183.435 M
504.83 183.435 L
S
GR
GS
[0.75 0 0 0.75 0 0] CT
0.149 GC
2 setlinecap
1 LJ
0.667 LW
N
507 181.795 M
504.83 181.795 L
S
GR
GS
[0.75 0 0 0.75 0 0] CT
0.149 GC
2 setlinecap
1 LJ
0.667 LW
N
507 180.374 M
504.83 180.374 L
S
GR
GS
[0.75 0 0 0.75 0 0] CT
0.149 GC
2 setlinecap
1 LJ
0.667 LW
N
507 179.121 M
504.83 179.121 L
S
GR
GS
[0.75 0 0 0.75 0 0] CT
0.149 GC
2 setlinecap
1 LJ
0.667 LW
N
507 178 M
504.83 178 L
S
GR
GS
[0.75 0 0 0.75 0 0] CT
0.149 GC
2 setlinecap
1 LJ
0.667 LW
N
507 178 M
504.83 178 L
S
GR
GS
[0.75 0 0 0.75 0 0] CT
0.149 GC
2 setlinecap
1 LJ
0.667 LW
N
507 170.625 M
504.83 170.625 L
S
GR
GS
[0.75 0 0 0.75 0 0] CT
0.149 GC
2 setlinecap
1 LJ
0.667 LW
N
507 166.311 M
504.83 166.311 L
S
GR
GS
[0.75 0 0 0.75 0 0] CT
0.149 GC
2 setlinecap
1 LJ
0.667 LW
N
507 163.25 M
504.83 163.25 L
S
GR
GS
[0.75 0 0 0.75 0 0] CT
0.149 GC
2 setlinecap
1 LJ
0.667 LW
N
507 160.875 M
504.83 160.875 L
S
GR
GS
[0.75 0 0 0.75 0 0] CT
0.149 GC
2 setlinecap
1 LJ
0.667 LW
N
507 158.935 M
504.83 158.935 L
S
GR
GS
[0.75 0 0 0.75 0 0] CT
0.149 GC
2 setlinecap
1 LJ
0.667 LW
N
507 157.295 M
504.83 157.295 L
S
GR
GS
[0.75 0 0 0.75 0 0] CT
0.149 GC
2 setlinecap
1 LJ
0.667 LW
N
507 155.874 M
504.83 155.874 L
S
GR
GS
[0.75 0 0 0.75 0 0] CT
0.149 GC
2 setlinecap
1 LJ
0.667 LW
N
507 154.621 M
504.83 154.621 L
S
GR
GS
[0.75 0 0 0.75 0 0] CT
0.149 GC
2 setlinecap
1 LJ
0.667 LW
N
507 153.5 M
504.83 153.5 L
S
GR
GS
[0.75 0 0 0.75 0 0] CT
0.149 GC
2 setlinecap
1 LJ
0.667 LW
N
507 146.125 M
504.83 146.125 L
S
GR
GS
[0.75 0 0 0.75 0 0] CT
0.149 GC
2 setlinecap
1 LJ
0.667 LW
N
507 141.811 M
504.83 141.811 L
S
GR
GS
[0.75 0 0 0.75 0 0] CT
0.149 GC
2 setlinecap
1 LJ
0.667 LW
N
507 138.75 M
504.83 138.75 L
S
GR
GS
[0.75 0 0 0.75 0 0] CT
0.149 GC
2 setlinecap
1 LJ
0.667 LW
N
507 136.375 M
504.83 136.375 L
S
GR
GS
[0.75 0 0 0.75 0 0] CT
0.149 GC
2 setlinecap
1 LJ
0.667 LW
N
507 134.435 M
504.83 134.435 L
S
GR
GS
[0.75 0 0 0.75 0 0] CT
0.149 GC
2 setlinecap
1 LJ
0.667 LW
N
507 132.795 M
504.83 132.795 L
S
GR
GS
[0.75 0 0 0.75 0 0] CT
0.149 GC
2 setlinecap
1 LJ
0.667 LW
N
507 131.374 M
504.83 131.374 L
S
GR
GS
[0.75 0 0 0.75 0 0] CT
0.149 GC
2 setlinecap
1 LJ
0.667 LW
N
507 130.121 M
504.83 130.121 L
S
GR
GS
[0.75 0 0 0.75 0 0] CT
0.149 GC
2 setlinecap
1 LJ
0.667 LW
N
507 129 M
504.83 129 L
S
GR
GS
[0.75 0 0 0.75 0 0] CT
0.149 GC
2 setlinecap
1 LJ
0.667 LW
N
507 121.625 M
504.83 121.625 L
S
GR
GS
[0.75 0 0 0.75 0 0] CT
0.149 GC
2 setlinecap
1 LJ
0.667 LW
N
507 117.311 M
504.83 117.311 L
S
GR
GS
[0.75 0 0 0.75 0 0] CT
0.149 GC
2 setlinecap
1 LJ
0.667 LW
N
507 114.25 M
504.83 114.25 L
S
GR
GS
[0.75 0 0 0.75 0 0] CT
0.149 GC
2 setlinecap
1 LJ
0.667 LW
N
507 111.875 M
504.83 111.875 L
S
GR
GS
[0.75 0 0 0.75 0 0] CT
0.149 GC
2 setlinecap
1 LJ
0.667 LW
N
507 109.935 M
504.83 109.935 L
S
GR
GS
[0.75 0 0 0.75 0 0] CT
0.149 GC
2 setlinecap
1 LJ
0.667 LW
N
507 108.295 M
504.83 108.295 L
S
GR
GS
[0.75 0 0 0.75 0 0] CT
0.149 GC
2 setlinecap
1 LJ
0.667 LW
N
507 106.874 M
504.83 106.874 L
S
GR
GS
[0.75 0 0 0.75 0 0] CT
0.149 GC
2 setlinecap
1 LJ
0.667 LW
N
507 105.621 M
504.83 105.621 L
S
GR
GS
[0.75 0 0 0.75 0 0] CT
0.149 GC
2 setlinecap
1 LJ
0.667 LW
N
507 104.5 M
504.83 104.5 L
S
GR
GS
[0.75 0 0 0.75 0 0] CT
0.149 GC
2 setlinecap
1 LJ
0.667 LW
N
507 97.125 M
504.83 97.125 L
S
GR
GS
[0.75 0 0 0.75 0 0] CT
0.149 GC
2 setlinecap
1 LJ
0.667 LW
N
507 92.811 M
504.83 92.811 L
S
GR
GS
[0.75 0 0 0.75 0 0] CT
0.149 GC
2 setlinecap
1 LJ
0.667 LW
N
507 89.75 M
504.83 89.75 L
S
GR
GS
[0.75 0 0 0.75 0 0] CT
0.149 GC
2 setlinecap
1 LJ
0.667 LW
N
507 87.375 M
504.83 87.375 L
S
GR
GS
[0.75 0 0 0.75 0 0] CT
0.149 GC
2 setlinecap
1 LJ
0.667 LW
N
507 85.435 M
504.83 85.435 L
S
GR
GS
[0.75 0 0 0.75 0 0] CT
0.149 GC
2 setlinecap
1 LJ
0.667 LW
N
507 83.795 M
504.83 83.795 L
S
GR
GS
[0.75 0 0 0.75 0 0] CT
0.149 GC
2 setlinecap
1 LJ
0.667 LW
N
507 82.374 M
504.83 82.374 L
S
GR
GS
[0.75 0 0 0.75 0 0] CT
0.149 GC
2 setlinecap
1 LJ
0.667 LW
N
507 81.121 M
504.83 81.121 L
S
GR
GS
[0.75 0 0 0.75 0 0] CT
0.149 GC
2 setlinecap
1 LJ
0.667 LW
N
507 80 M
504.83 80 L
S
GR
GS
[0.75 0 0 0.75 0 0] CT
0.149 GC
2 setlinecap
1 LJ
0.667 LW
N
507 72.625 M
504.83 72.625 L
S
GR
GS
[0.75 0 0 0.75 0 0] CT
0.149 GC
2 setlinecap
1 LJ
0.667 LW
N
507 68.311 M
504.83 68.311 L
S
GR
GS
[0.75 0 0 0.75 0 0] CT
0.149 GC
2 setlinecap
1 LJ
0.667 LW
N
507 65.25 M
504.83 65.25 L
S
GR
GS
[0.75 0 0 0.75 0 0] CT
0.149 GC
2 setlinecap
1 LJ
0.667 LW
N
507 62.875 M
504.83 62.875 L
S
GR
GS
[0.75 0 0 0.75 0 0] CT
0.149 GC
2 setlinecap
1 LJ
0.667 LW
N
507 60.935 M
504.83 60.935 L
S
GR
GS
[0.75 0 0 0.75 0 0] CT
0.149 GC
2 setlinecap
1 LJ
0.667 LW
N
507 59.295 M
504.83 59.295 L
S
GR
GS
[0.75 0 0 0.75 0 0] CT
0.149 GC
2 setlinecap
1 LJ
0.667 LW
N
507 57.874 M
504.83 57.874 L
S
GR
GS
[0.75 0 0 0.75 0 0] CT
0.149 GC
2 setlinecap
1 LJ
0.667 LW
N
507 56.621 M
504.83 56.621 L
S
GR
GS
[0.75 0 0 0.75 0 0] CT
0.149 GC
2 setlinecap
1 LJ
0.667 LW
N
507 55.5 M
504.83 55.5 L
S
GR
GS
[0.75 0 0 0.75 0 0] CT
0.149 GC
2 setlinecap
1 LJ
0.667 LW
N
507 48.125 M
504.83 48.125 L
S
GR
GS
[0.75 0 0 0.75 0 0] CT
0.149 GC
2 setlinecap
1 LJ
0.667 LW
N
507 43.811 M
504.83 43.811 L
S
GR
GS
[0.75 0 0 0.75 0 0] CT
0.149 GC
2 setlinecap
1 LJ
0.667 LW
N
507 40.75 M
504.83 40.75 L
S
GR
GS
[0.75 0 0 0.75 0 0] CT
0.149 GC
2 setlinecap
1 LJ
0.667 LW
N
507 38.375 M
504.83 38.375 L
S
GR
GS
[0.75 0 0 0.75 0 0] CT
0.149 GC
2 setlinecap
1 LJ
0.667 LW
N
507 36.435 M
504.83 36.435 L
S
GR
GS
[0.75 0 0 0.75 0 0] CT
0.149 GC
2 setlinecap
1 LJ
0.667 LW
N
507 34.795 M
504.83 34.795 L
S
GR
GS
[0.75 0 0 0.75 0 0] CT
0.149 GC
2 setlinecap
1 LJ
0.667 LW
N
507 33.374 M
504.83 33.374 L
S
GR
GS
[0.75 0 0 0.75 0 0] CT
0.149 GC
2 setlinecap
1 LJ
0.667 LW
N
507 32.121 M
504.83 32.121 L
S
GR
GS
[0.75 0 0 0.75 0 0] CT
0.149 GC
2 setlinecap
1 LJ
0.667 LW
N
507 31 M
504.83 31 L
S
GR
GS
[0.75 0 0 0.75 27.75 285.75] CT
0.149 GC
/Helvetica 13.333 F
GS
[1 0 0 1 0 0] CT
0 0 moveto 
1 -1 scale
(10) t 
GR
GR
GS
[0.75 0 0 0.75 39 281.25] CT
0.149 GC
/Helvetica 10.667 F
GS
[1 0 0 1 0 0] CT
0 0 moveto 
1 -1 scale
(-12) t 
GR
GR
GS
[0.75 0 0 0.75 27.75 249] CT
0.149 GC
/Helvetica 13.333 F
GS
[1 0 0 1 0 0] CT
0 0 moveto 
1 -1 scale
(10) t 
GR
GR
GS
[0.75 0 0 0.75 39 244.5] CT
0.149 GC
/Helvetica 10.667 F
GS
[1 0 0 1 0 0] CT
0 0 moveto 
1 -1 scale
(-10) t 
GR
GR
GS
[0.75 0 0 0.75 32.25 212.25] CT
0.149 GC
/Helvetica 13.333 F
GS
[1 0 0 1 0 0] CT
0 0 moveto 
1 -1 scale
(10) t 
GR
GR
GS
[0.75 0 0 0.75 43.5 207.75] CT
0.149 GC
/Helvetica 10.667 F
GS
[1 0 0 1 0 0] CT
0 0 moveto 
1 -1 scale
(-8) t 
GR
GR
GS
[0.75 0 0 0.75 32.25 175.5] CT
0.149 GC
/Helvetica 13.333 F
GS
[1 0 0 1 0 0] CT
0 0 moveto 
1 -1 scale
(10) t 
GR
GR
GS
[0.75 0 0 0.75 43.5 171] CT
0.149 GC
/Helvetica 10.667 F
GS
[1 0 0 1 0 0] CT
0 0 moveto 
1 -1 scale
(-6) t 
GR
GR
GS
[0.75 0 0 0.75 32.25 138.75] CT
0.149 GC
/Helvetica 13.333 F
GS
[1 0 0 1 0 0] CT
0 0 moveto 
1 -1 scale
(10) t 
GR
GR
GS
[0.75 0 0 0.75 43.5 134.25] CT
0.149 GC
/Helvetica 10.667 F
GS
[1 0 0 1 0 0] CT
0 0 moveto 
1 -1 scale
(-4) t 
GR
GR
GS
[0.75 0 0 0.75 32.25 102] CT
0.149 GC
/Helvetica 13.333 F
GS
[1 0 0 1 0 0] CT
0 0 moveto 
1 -1 scale
(10) t 
GR
GR
GS
[0.75 0 0 0.75 43.5 97.5] CT
0.149 GC
/Helvetica 10.667 F
GS
[1 0 0 1 0 0] CT
0 0 moveto 
1 -1 scale
(-2) t 
GR
GR
GS
[0.75 0 0 0.75 35.25 65.25] CT
0.149 GC
/Helvetica 13.333 F
GS
[1 0 0 1 0 0] CT
0 0 moveto 
1 -1 scale
(10) t 
GR
GR
GS
[0.75 0 0 0.75 46.5 60.75] CT
0.149 GC
/Helvetica 10.667 F
GS
[1 0 0 1 0 0] CT
0 0 moveto 
1 -1 scale
(0) t 
GR
GR
GS
[0.75 0 0 0.75 35.25 28.5] CT
0.149 GC
/Helvetica 13.333 F
GS
[1 0 0 1 0 0] CT
0 0 moveto 
1 -1 scale
(10) t 
GR
GR
GS
[0.75 0 0 0.75 46.5 24] CT
0.149 GC
/Helvetica 10.667 F
GS
[1 0 0 1 0 0] CT
0 0 moveto 
1 -1 scale
(2) t 
GR
GR
GS
[0 -0.75 0.75 0 24.5 151.87487] CT
0.149 GC
/Helvetica 14.667 F
GS
[1 0 0 1 0 0] CT
-52 -4 moveto 
1 -1 scale
(Parameter error) t 
GR
GR
GS
[0.75 0 0 0.75 217.50021 21.18749] CT
/Helvetica-Bold 14.667 F
GS
[1 0 0 1 0 0] CT
-55 -4 moveto 
1 -1 scale
(Parameter error) t 
GR
GR
GS
[0.75 0 0 0.75 0 0] CT
0 0.447 0.741 RC
1 LJ
0.667 LW
N
73.434 69.519 M
73.868 69.791 L
74.302 70.061 L
74.736 70.33 L
75.17 70.598 L
75.604 70.866 L
76.038 71.133 L
76.472 71.399 L
76.906 71.666 L
77.34 71.932 L
77.774 72.199 L
78.208 72.465 L
78.642 72.731 L
79.076 72.998 L
79.51 73.264 L
79.944 73.53 L
80.378 73.796 L
80.812 74.062 L
81.246 74.329 L
81.68 74.595 L
82.114 74.861 L
82.548 75.127 L
82.982 75.393 L
83.416 75.66 L
83.85 75.926 L
84.284 76.192 L
84.718 76.458 L
85.152 76.724 L
85.586 76.991 L
86.02 77.257 L
86.454 77.523 L
86.888 77.789 L
87.322 78.055 L
87.756 78.322 L
88.19 78.588 L
88.624 78.854 L
89.058 79.12 L
89.492 79.386 L
89.926 79.653 L
90.36 79.919 L
90.794 80.185 L
91.228 80.451 L
91.662 80.717 L
92.096 80.984 L
92.53 81.25 L
92.964 81.516 L
93.398 81.782 L
93.832 82.048 L
94.266 82.315 L
94.7 82.581 L
95.134 82.847 L
95.568 83.113 L
96.002 83.379 L
96.436 83.646 L
96.87 83.912 L
97.304 84.178 L
97.738 84.444 L
98.172 84.71 L
98.606 84.977 L
99.04 85.243 L
99.474 85.509 L
99.908 85.775 L
100.342 86.041 L
100.776 86.308 L
101.21 86.574 L
101.644 86.84 L
102.078 87.106 L
102.512 87.372 L
102.946 87.639 L
103.38 87.905 L
103.814 88.171 L
104.248 88.437 L
104.682 88.703 L
105.116 88.97 L
105.55 89.236 L
105.984 89.502 L
106.418 89.768 L
106.852 90.034 L
107.286 90.3 L
107.72 90.567 L
108.154 90.833 L
108.588 91.099 L
109.022 91.365 L
109.456 91.631 L
109.89 91.898 L
110.324 92.164 L
110.758 92.43 L
111.192 92.696 L
111.626 92.962 L
112.06 93.229 L
112.494 93.495 L
112.928 93.761 L
113.362 94.027 L
113.796 94.293 L
114.23 94.56 L
114.664 94.826 L
115.098 95.092 L
115.532 95.358 L
115.966 95.624 L
116.4 95.891 L
116.834 96.157 L
117.268 96.423 L
117.702 96.689 L
118.136 96.955 L
118.57 97.222 L
119.004 97.488 L
119.438 97.754 L
119.872 98.02 L
120.306 98.286 L
120.74 98.553 L
121.174 98.819 L
121.608 99.085 L
122.042 99.351 L
122.476 99.617 L
122.91 99.884 L
123.344 100.15 L
123.778 100.416 L
124.212 100.682 L
124.646 100.948 L
125.08 101.215 L
125.514 101.481 L
125.948 101.747 L
126.382 102.013 L
126.816 102.279 L
127.25 102.546 L
127.684 102.812 L
128.118 103.078 L
128.552 103.344 L
128.986 103.61 L
129.42 103.877 L
129.854 104.143 L
130.288 104.409 L
130.722 104.675 L
131.156 104.941 L
131.59 105.208 L
132.024 105.474 L
132.458 105.74 L
132.892 106.006 L
133.326 106.272 L
133.76 106.538 L
134.194 106.805 L
134.628 107.071 L
135.062 107.337 L
135.496 107.603 L
135.93 107.869 L
136.364 108.136 L
136.798 108.402 L
137.232 108.668 L
137.666 108.934 L
138.1 109.2 L
138.534 109.467 L
138.968 109.733 L
139.402 109.999 L
139.836 110.265 L
140.27 110.531 L
140.704 110.798 L
141.138 111.064 L
141.572 111.33 L
142.006 111.596 L
142.44 111.862 L
142.874 112.129 L
143.308 112.395 L
143.742 112.661 L
144.176 112.927 L
144.61 113.193 L
145.044 113.46 L
145.478 113.726 L
145.912 113.992 L
146.346 114.258 L
146.78 114.524 L
147.214 114.791 L
147.648 115.057 L
148.082 115.323 L
148.516 115.589 L
148.95 115.855 L
149.384 116.122 L
149.818 116.388 L
150.252 116.654 L
150.686 116.92 L
151.12 117.186 L
151.554 117.453 L
151.988 117.719 L
152.422 117.985 L
152.856 118.251 L
153.29 118.517 L
153.724 118.784 L
154.158 119.05 L
154.592 119.316 L
155.026 119.582 L
155.46 119.848 L
155.894 120.115 L
156.328 120.381 L
156.762 120.647 L
157.196 120.913 L
157.63 121.179 L
158.064 121.446 L
158.498 121.712 L
158.932 121.978 L
159.366 122.244 L
159.8 122.51 L
160.234 122.777 L
160.668 123.043 L
161.102 123.309 L
161.536 123.575 L
161.97 123.841 L
162.404 124.108 L
162.838 124.374 L
163.272 124.64 L
163.706 124.906 L
164.14 125.172 L
164.574 125.438 L
165.008 125.705 L
165.442 125.971 L
165.876 126.237 L
166.31 126.503 L
166.744 126.769 L
167.178 127.036 L
167.612 127.302 L
168.046 127.568 L
168.48 127.834 L
168.914 128.1 L
169.348 128.367 L
169.782 128.633 L
170.216 128.899 L
170.65 129.165 L
171.084 129.431 L
171.518 129.698 L
171.952 129.964 L
172.386 130.23 L
172.82 130.496 L
173.254 130.762 L
173.688 131.029 L
174.122 131.295 L
174.556 131.561 L
174.99 131.827 L
175.424 132.093 L
175.858 132.36 L
176.292 132.626 L
176.726 132.892 L
177.16 133.158 L
177.594 133.424 L
178.028 133.691 L
178.462 133.957 L
178.896 134.223 L
179.33 134.489 L
179.764 134.755 L
180.198 135.022 L
180.632 135.288 L
181.066 135.554 L
181.5 135.82 L
181.934 136.086 L
182.368 136.353 L
182.802 136.619 L
183.236 136.885 L
183.67 137.151 L
184.104 137.417 L
184.538 137.684 L
184.972 137.95 L
185.406 138.216 L
185.84 138.482 L
186.274 138.748 L
186.708 139.015 L
187.142 139.281 L
187.576 139.547 L
188.01 139.813 L
188.444 140.079 L
188.878 140.346 L
189.312 140.612 L
189.746 140.878 L
190.18 141.144 L
190.614 141.41 L
191.048 141.676 L
191.482 141.943 L
191.916 142.209 L
192.35 142.475 L
192.784 142.741 L
193.218 143.007 L
193.652 143.274 L
194.086 143.54 L
194.52 143.806 L
194.954 144.072 L
195.388 144.338 L
195.822 144.605 L
196.256 144.871 L
196.69 145.137 L
197.124 145.403 L
197.558 145.669 L
197.992 145.936 L
198.426 146.202 L
198.86 146.468 L
199.294 146.734 L
199.728 147 L
200.162 147.267 L
200.596 147.533 L
201.03 147.799 L
201.464 148.065 L
201.898 148.331 L
202.332 148.598 L
202.766 148.864 L
203.2 149.13 L
203.634 149.396 L
204.068 149.662 L
204.502 149.929 L
204.936 150.195 L
205.37 150.461 L
205.804 150.727 L
206.238 150.993 L
206.672 151.26 L
207.106 151.526 L
207.54 151.792 L
207.974 152.058 L
208.408 152.324 L
208.842 152.591 L
209.276 152.857 L
209.71 153.123 L
210.144 153.389 L
210.578 153.655 L
211.012 153.922 L
211.446 154.188 L
211.88 154.454 L
212.314 154.72 L
212.748 154.986 L
213.182 155.253 L
213.616 155.519 L
214.05 155.785 L
214.484 156.051 L
214.918 156.317 L
215.352 156.584 L
215.786 156.85 L
216.22 157.116 L
216.654 157.382 L
217.088 157.648 L
217.522 157.915 L
217.956 158.181 L
218.39 158.447 L
218.824 158.713 L
219.258 158.979 L
219.692 159.246 L
220.126 159.512 L
220.56 159.778 L
220.994 160.044 L
221.428 160.31 L
221.862 160.576 L
222.296 160.843 L
222.73 161.109 L
223.164 161.375 L
223.598 161.641 L
224.032 161.907 L
224.466 162.174 L
224.9 162.44 L
225.334 162.706 L
225.768 162.972 L
226.202 163.238 L
226.636 163.505 L
227.07 163.771 L
227.504 164.037 L
227.938 164.303 L
228.372 164.569 L
228.806 164.836 L
229.24 165.102 L
229.674 165.368 L
230.108 165.634 L
230.542 165.9 L
230.976 166.167 L
231.41 166.433 L
231.844 166.699 L
232.278 166.965 L
232.712 167.231 L
233.146 167.498 L
233.58 167.764 L
234.014 168.03 L
234.448 168.296 L
234.882 168.562 L
235.316 168.829 L
235.75 169.095 L
236.184 169.361 L
236.618 169.627 L
237.052 169.893 L
237.486 170.16 L
237.92 170.426 L
238.354 170.692 L
238.788 170.958 L
239.222 171.224 L
239.656 171.491 L
240.09 171.757 L
240.524 172.023 L
240.958 172.289 L
241.392 172.555 L
241.826 172.822 L
242.26 173.088 L
242.694 173.354 L
243.128 173.62 L
243.562 173.886 L
243.996 174.153 L
244.43 174.419 L
244.864 174.685 L
245.298 174.951 L
245.732 175.217 L
246.166 175.484 L
246.6 175.75 L
247.034 176.016 L
247.468 176.282 L
247.902 176.548 L
248.336 176.814 L
248.77 177.081 L
249.204 177.347 L
249.638 177.613 L
250.072 177.879 L
250.506 178.145 L
250.94 178.412 L
251.374 178.678 L
251.808 178.944 L
252.242 179.21 L
252.676 179.476 L
253.11 179.743 L
253.544 180.009 L
253.978 180.275 L
254.412 180.541 L
254.846 180.807 L
255.28 181.074 L
255.714 181.34 L
256.148 181.606 L
256.582 181.872 L
257.016 182.138 L
257.45 182.405 L
257.884 182.671 L
258.318 182.937 L
258.752 183.203 L
259.186 183.469 L
259.62 183.736 L
260.054 184.002 L
260.488 184.268 L
260.922 184.534 L
261.356 184.8 L
261.79 185.067 L
262.224 185.333 L
262.658 185.599 L
263.092 185.865 L
263.526 186.131 L
263.96 186.398 L
264.394 186.664 L
264.828 186.93 L
265.262 187.196 L
265.696 187.462 L
266.13 187.729 L
266.564 187.995 L
266.998 188.261 L
267.432 188.527 L
267.866 188.793 L
268.3 189.06 L
268.734 189.326 L
269.168 189.592 L
269.602 189.858 L
270.036 190.124 L
270.47 190.391 L
270.904 190.657 L
271.338 190.923 L
271.772 191.189 L
272.206 191.455 L
272.64 191.722 L
273.074 191.988 L
273.508 192.254 L
273.942 192.52 L
274.376 192.786 L
274.81 193.053 L
275.244 193.319 L
275.678 193.585 L
276.112 193.851 L
276.546 194.117 L
276.98 194.384 L
277.414 194.65 L
277.848 194.916 L
278.282 195.182 L
278.716 195.448 L
279.15 195.714 L
279.584 195.981 L
280.018 196.247 L
280.452 196.513 L
280.886 196.779 L
281.32 197.045 L
281.754 197.312 L
282.188 197.578 L
282.622 197.844 L
283.056 198.11 L
283.49 198.376 L
283.924 198.643 L
284.358 198.909 L
284.792 199.175 L
285.226 199.441 L
285.66 199.707 L
286.094 199.974 L
286.528 200.24 L
286.962 200.506 L
287.396 200.772 L
287.83 201.038 L
288.264 201.305 L
288.698 201.571 L
289.132 201.837 L
289.566 202.103 L
290 202.369 L
290.434 202.636 L
290.868 202.902 L
291.302 203.168 L
291.736 203.434 L
292.17 203.7 L
292.604 203.967 L
293.038 204.233 L
293.472 204.499 L
293.906 204.765 L
294.34 205.031 L
294.774 205.298 L
295.208 205.564 L
295.642 205.83 L
296.076 206.096 L
296.51 206.362 L
296.944 206.629 L
297.378 206.895 L
297.812 207.161 L
298.246 207.427 L
298.68 207.693 L
299.114 207.96 L
299.548 208.226 L
299.982 208.492 L
300.416 208.758 L
300.85 209.024 L
301.284 209.291 L
301.718 209.557 L
302.152 209.823 L
302.586 210.089 L
303.02 210.355 L
303.454 210.622 L
303.888 210.888 L
304.322 211.154 L
304.756 211.42 L
305.19 211.686 L
305.624 211.953 L
306.058 212.219 L
306.492 212.485 L
306.926 212.751 L
307.36 213.017 L
307.794 213.283 L
308.228 213.55 L
308.662 213.816 L
309.096 214.082 L
309.53 214.348 L
309.964 214.614 L
310.398 214.881 L
310.832 215.147 L
311.266 215.413 L
311.7 215.679 L
312.134 215.945 L
312.568 216.212 L
313.002 216.478 L
313.436 216.744 L
313.87 217.01 L
314.304 217.276 L
314.738 217.543 L
315.172 217.809 L
315.606 218.075 L
316.04 218.341 L
316.474 218.607 L
316.908 218.874 L
317.342 219.14 L
317.776 219.406 L
318.21 219.672 L
318.644 219.938 L
319.078 220.205 L
319.512 220.471 L
319.946 220.737 L
320.38 221.003 L
320.814 221.269 L
321.248 221.536 L
321.682 221.802 L
322.116 222.068 L
322.55 222.334 L
322.984 222.6 L
323.418 222.867 L
323.852 223.133 L
324.286 223.399 L
324.72 223.665 L
325.154 223.931 L
325.588 224.198 L
326.022 224.464 L
326.456 224.73 L
326.89 224.996 L
327.324 225.262 L
327.758 225.529 L
328.192 225.795 L
328.626 226.061 L
329.06 226.327 L
329.494 226.593 L
329.928 226.86 L
330.362 227.126 L
330.796 227.392 L
331.23 227.658 L
331.664 227.924 L
332.098 228.191 L
332.532 228.457 L
332.966 228.723 L
333.4 228.989 L
333.834 229.255 L
334.268 229.522 L
334.702 229.788 L
335.136 230.054 L
335.57 230.32 L
336.004 230.586 L
336.438 230.852 L
336.872 231.119 L
337.306 231.385 L
337.74 231.651 L
338.174 231.917 L
338.608 232.183 L
339.042 232.45 L
339.476 232.716 L
339.91 232.982 L
340.344 233.248 L
340.778 233.514 L
341.212 233.781 L
341.646 234.047 L
342.08 234.313 L
342.514 234.579 L
342.948 234.845 L
343.382 235.112 L
343.816 235.378 L
344.25 235.644 L
344.684 235.91 L
345.118 236.176 L
345.552 236.443 L
345.986 236.709 L
346.42 236.975 L
346.854 237.241 L
347.288 237.507 L
347.722 237.774 L
348.156 238.04 L
348.59 238.306 L
349.024 238.572 L
349.458 238.838 L
349.892 239.105 L
350.326 239.371 L
350.76 239.637 L
351.194 239.903 L
351.628 240.169 L
352.062 240.436 L
352.496 240.702 L
352.93 240.968 L
353.364 241.234 L
353.798 241.5 L
354.232 241.767 L
354.666 242.033 L
355.1 242.299 L
355.534 242.565 L
355.968 242.831 L
356.402 243.098 L
356.836 243.364 L
357.27 243.63 L
357.704 243.896 L
358.138 244.162 L
358.572 244.429 L
359.006 244.695 L
359.44 244.961 L
359.874 245.227 L
360.308 245.493 L
360.742 245.76 L
361.176 246.026 L
361.61 246.292 L
362.044 246.558 L
362.478 246.824 L
362.912 247.091 L
363.346 247.357 L
363.78 247.623 L
364.214 247.889 L
364.648 248.155 L
365.082 248.421 L
365.516 248.688 L
365.95 248.954 L
366.384 249.22 L
366.818 249.486 L
367.252 249.752 L
367.686 250.019 L
368.12 250.285 L
368.554 250.551 L
368.988 250.817 L
369.422 251.083 L
369.856 251.35 L
370.29 251.616 L
370.724 251.882 L
371.158 252.148 L
371.592 252.414 L
372.026 252.681 L
372.46 252.947 L
372.894 253.213 L
373.328 253.479 L
373.762 253.745 L
374.196 254.012 L
374.63 254.278 L
375.064 254.544 L
375.498 254.81 L
375.932 255.076 L
376.366 255.343 L
376.8 255.609 L
377.234 255.875 L
377.668 256.141 L
378.102 256.407 L
378.536 256.674 L
378.97 256.94 L
379.404 257.206 L
379.838 257.472 L
380.272 257.738 L
380.706 258.005 L
381.14 258.271 L
381.574 258.537 L
382.008 258.803 L
382.442 259.069 L
382.876 259.336 L
383.31 259.602 L
383.744 259.868 L
384.178 260.134 L
384.612 260.4 L
385.046 260.667 L
385.48 260.933 L
385.914 261.199 L
386.348 261.465 L
386.782 261.731 L
387.216 261.998 L
387.65 262.264 L
388.084 262.53 L
388.518 262.796 L
388.952 263.062 L
389.386 263.329 L
389.82 263.595 L
390.254 263.861 L
390.688 264.127 L
391.122 264.393 L
391.556 264.66 L
391.99 264.926 L
392.424 265.192 L
392.858 265.458 L
393.292 265.724 L
393.726 265.991 L
394.16 266.257 L
394.594 266.523 L
395.028 266.789 L
395.462 267.055 L
395.896 267.321 L
396.33 267.588 L
396.764 267.854 L
397.198 268.12 L
397.632 268.386 L
398.066 268.652 L
398.5 268.919 L
398.934 269.185 L
399.368 269.451 L
399.802 269.717 L
400.236 269.983 L
400.67 270.25 L
401.104 270.516 L
401.538 270.782 L
401.972 271.048 L
402.406 271.314 L
402.84 271.581 L
403.274 271.847 L
403.708 272.113 L
404.142 272.379 L
404.576 272.645 L
405.01 272.912 L
405.444 273.178 L
405.878 273.444 L
406.312 273.71 L
406.746 273.976 L
407.18 274.243 L
407.614 274.509 L
408.048 274.775 L
408.482 275.041 L
408.916 275.307 L
409.35 275.574 L
409.784 275.84 L
410.218 276.106 L
410.652 276.372 L
411.086 276.638 L
411.52 276.905 L
411.954 277.171 L
412.388 277.437 L
412.822 277.703 L
413.256 277.969 L
413.69 278.236 L
414.124 278.502 L
414.558 278.768 L
414.992 279.034 L
415.426 279.3 L
415.86 279.567 L
416.294 279.833 L
416.728 280.099 L
417.162 280.365 L
417.596 280.631 L
418.03 280.898 L
418.464 281.164 L
418.898 281.43 L
419.332 281.696 L
419.766 281.962 L
420.2 282.229 L
420.634 282.495 L
421.068 282.761 L
421.502 283.027 L
421.936 283.293 L
422.37 283.56 L
422.804 283.826 L
423.238 284.092 L
423.672 284.358 L
424.106 284.624 L
424.54 284.89 L
424.974 285.157 L
425.408 285.423 L
425.842 285.689 L
426.276 285.955 L
426.71 286.221 L
427.144 286.488 L
427.578 286.754 L
428.012 287.02 L
428.446 287.286 L
428.88 287.552 L
429.314 287.819 L
429.748 288.085 L
430.182 288.351 L
430.616 288.617 L
431.05 288.883 L
431.484 289.15 L
431.918 289.416 L
432.352 289.682 L
432.786 289.948 L
433.22 290.214 L
433.654 290.481 L
434.088 290.747 L
434.522 291.013 L
434.956 291.279 L
435.39 291.545 L
435.824 291.812 L
436.258 292.078 L
436.692 292.344 L
437.126 292.61 L
437.56 292.876 L
437.994 293.143 L
438.428 293.409 L
438.862 293.675 L
439.296 293.941 L
439.73 294.207 L
440.164 294.474 L
440.598 294.74 L
441.032 295.006 L
441.466 295.272 L
441.9 295.538 L
442.334 295.805 L
442.768 296.071 L
443.202 296.337 L
443.636 296.603 L
444.07 296.869 L
444.504 297.136 L
444.938 297.402 L
445.372 297.668 L
445.806 297.934 L
446.24 298.2 L
446.674 298.467 L
447.108 298.733 L
447.542 298.999 L
447.976 299.265 L
448.41 299.531 L
448.844 299.798 L
449.278 300.064 L
449.712 300.33 L
450.146 300.596 L
450.58 300.862 L
451.014 301.129 L
451.448 301.395 L
451.882 301.661 L
452.316 301.927 L
452.75 302.193 L
453.184 302.459 L
453.618 302.726 L
454.052 302.992 L
454.486 303.258 L
454.92 303.524 L
455.354 303.79 L
455.788 304.057 L
456.222 304.323 L
456.656 304.589 L
457.09 304.855 L
457.524 305.121 L
457.958 305.388 L
458.392 305.654 L
458.826 305.92 L
459.26 306.186 L
459.694 306.452 L
460.128 306.719 L
460.562 306.985 L
460.996 307.251 L
461.43 307.517 L
461.864 307.783 L
462.298 308.05 L
462.732 308.316 L
463.166 308.582 L
463.6 308.848 L
464.034 309.114 L
464.468 309.381 L
464.902 309.647 L
465.336 309.913 L
465.77 310.179 L
466.204 310.445 L
466.638 310.712 L
467.072 310.978 L
467.506 311.244 L
467.94 311.51 L
468.374 311.776 L
468.808 312.043 L
469.242 312.309 L
469.676 312.575 L
470.11 312.841 L
470.544 313.107 L
470.978 313.374 L
471.412 313.64 L
471.846 313.906 L
472.28 314.172 L
472.714 314.438 L
473.148 314.705 L
473.582 314.971 L
474.016 315.237 L
474.45 315.503 L
474.884 315.769 L
475.318 316.036 L
475.752 316.302 L
476.186 316.568 L
476.62 316.834 L
477.054 317.1 L
477.488 317.367 L
477.922 317.633 L
478.356 317.899 L
478.79 318.165 L
479.224 318.431 L
479.658 318.698 L
480.092 318.964 L
480.526 319.23 L
480.96 319.496 L
481.394 319.762 L
481.828 320.028 L
482.262 320.295 L
482.696 320.561 L
483.13 320.827 L
483.564 321.093 L
483.998 321.359 L
484.432 321.626 L
484.866 321.892 L
485.3 322.158 L
485.734 322.424 L
486.168 322.69 L
486.602 322.957 L
487.036 323.223 L
487.47 323.489 L
487.904 323.755 L
488.338 324.021 L
488.772 324.288 L
489.206 324.554 L
489.64 324.82 L
490.074 325.086 L
490.508 325.352 L
490.942 325.619 L
491.376 325.885 L
491.81 326.151 L
492.244 326.417 L
492.678 326.683 L
493.112 326.95 L
493.546 327.216 L
493.98 327.482 L
494.414 327.748 L
494.848 328.014 L
495.282 328.281 L
495.716 328.547 L
496.15 328.813 L
496.584 329.079 L
497.018 329.345 L
497.452 329.612 L
497.886 329.878 L
498.32 330.144 L
498.754 330.41 L
499.188 330.676 L
499.622 330.943 L
500.056 331.209 L
500.49 331.475 L
500.924 331.741 L
501.358 332.007 L
501.792 332.274 L
502.226 332.54 L
502.66 332.806 L
503.094 333.072 L
503.528 333.338 L
503.962 333.605 L
504.396 333.871 L
504.83 334.137 L
505.264 334.403 L
505.698 334.669 L
506.132 334.935 L
506.566 335.202 L
507 335.468 L
S
GR
%%Trailer
%%Pages: 1
%%EOF
