\relax 
\@writefile{toc}{\contentsline {section}{\numberline {1}1ο ερώτημα}{1}}
\@writefile{toc}{\contentsline {section}{\numberline {2}2ο ερώτημα}{1}}
\@writefile{toc}{\contentsline {section}{\numberline {3}3ο ερώτημα}{2}}
\providecommand*\caption@xref[2]{\@setref\relax\@undefined{#1}}
\newlabel{fig:1}{{1α\anw@true  \anw@print  \relax }{2}}
\newlabel{sub@fig:1}{{α\anw@true  \anw@print  \relax }{2}}
\newlabel{fig:2}{{1β\anw@true  \anw@print  \relax }{2}}
\newlabel{sub@fig:2}{{β\anw@true  \anw@print  \relax }{2}}
\newlabel{fig:3}{{2α\anw@true  \anw@print  \relax }{2}}
\newlabel{sub@fig:3}{{α\anw@true  \anw@print  \relax }{2}}
\newlabel{fig:4}{{2β\anw@true  \anw@print  \relax }{2}}
\newlabel{sub@fig:4}{{β\anw@true  \anw@print  \relax }{2}}
\@writefile{lof}{\contentsline {figure}{\numberline {3}{\ignorespaces Error Surface for $\mitmu = 2.54716$\relax }}{3}}
\newlabel{fig:5}{{3}{3}}
\@writefile{toc}{\contentsline {section}{\numberline {4}4ο ερώτημα}{3}}
\@writefile{toc}{\contentsline {section}{\numberline {5}Κώδικας}{3}}
